US Plants Digitization Status
…
  # Convert data to a long format
  pivoted_percentage_us_dataset <- pivot_longer(percentage_us_dataset, -institutionCode, names_to = "variable", values_to = "coverage")
  
  pivoted_percentage_us_dataset$variable <- as.factor(pivoted_percentage_us_dataset$variable) # prepare data type for violin plots
  
  return(pivoted_percentage_us_dataset)
}

gbif_pivoted_percentage_us_dataset <- percentage_pivot(gbif_us_dataset)
gbif_pivoted_percentage_us_dataset

## # A tibble: 4,900 x 3
##    institutionCode variable              coverage
##    <fct>           <fct>                    <dbl>
##  1 A               has_collectionCode       1    
##  2 A               has_catalogNumber        1    
##  3 A               has_preparations         0.874
##  4 A               has_speciesKey           0.907
##  5 A               has_scientificName       1    
##  6 A               has_scientificNameID     0    
##  7 A               has_acceptedNameUsage    0    
##  8 A               has_identificationID     0    
##  9 A               has_locality             0.914
## 10 A               has_higherGeography      0.847
## #  with 4,890 more rows

idigbio_pivoted_percentage_us_dataset <- percentage_pivot(idigbio_us_dataset)
idigbio_pivoted_percentage_us_dataset

## # A tibble: 9,048 x 3
##    institutionCode variable              coverage
##    <fct>           <fct>                    <dbl>
##  1 A               has_collectionCode       1    
##  2 A               has_catalogNumber        1    
##  3 A               has_preparations         1.00 
##  4 A               has_scientificName       1    
##  5 A               has_scientificNameID     0    
##  6 A               has_acceptedNameUsage    0    
##  7 A               has_identificationID     0    
##  8 A               has_locality             0.903
##  9 A               has_higherGeography      0.967
## 10 A               has_continent            0.967
## #  with 9,038 more rows

merged_pivoted_percentage_us_dataset <- bind_rows(idigbio = idigbio_pivoted_percentage_us_dataset, gbif = gbif_pivoted_percentage_us_dataset, .id = "data_provider")

merged_pivoted_percentage_us_dataset$data_provider <- as.factor(merged_pivoted_percentage_us_dataset$data_provider) # prepare data type for violin plots
merged_pivoted_percentage_us_dataset

## # A tibble: 13,948 x 4
##    data_provider institutionCode variable              coverage
##    <fct>         <fct>           <fct>                    <dbl>
##  1 idigbio       A               has_collectionCode       1    
##  2 idigbio       A               has_catalogNumber        1    
##  3 idigbio       A               has_preparations         1.00 
##  4 idigbio       A               has_scientificName       1    
##  5 idigbio       A               has_scientificNameID     0    
##  6 idigbio       A               has_acceptedNameUsage    0    
##  7 idigbio       A               has_identificationID     0    
##  8 idigbio       A               has_locality             0.903
##  9 idigbio       A               has_higherGeography      0.967
## 10 idigbio       A               has_continent            0.967
## #  with 13,938 more rows
…
