US Plants Digitization Status
…
  # Convert data to a long format
  pivoted_percentage_us_dataset <- pivot_longer(percentage_us_dataset, -institutionCode, names_to = "variable", values_to = "coverage")
  
  pivoted_percentage_us_dataset$variable <- as.factor(pivoted_percentage_us_dataset$variable) # prepare data type for violin plots
  
  return(pivoted_percentage_us_dataset)
}

gbif_pivoted_percentage_us_dataset <- percentage_pivot(gbif_us_dataset)
gbif_pivoted_percentage_us_dataset

## # A tibble: 2,716 x 3
##    institutionCode variable              coverage
##    <fct>           <fct>                    <dbl>
##  1 CSLA            has_collectionCode       0    
##  2 CSLA            has_catalogNumber        1    
##  3 CSLA            has_speciesKey           0.985
##  4 CSLA            has_scientificName       1    
##  5 CSLA            has_acceptedNameUsage    0    
##  6 CSLA            has_locality             0.991
##  7 CSLA            has_higherGeography      0    
##  8 CSLA            has_countryCode          0.975
##  9 CSLA            has_coordinates          0.124
## 10 CSLA            has_image                1    
## #  with 2,706 more rows

idigbio_pivoted_percentage_us_dataset <- percentage_pivot(idigbio_us_dataset)
idigbio_pivoted_percentage_us_dataset

## # A tibble: 4,620 x 3
##    institutionCode variable              coverage
##    <fct>           <fct>                    <dbl>
##  1 MOR             has_collectionCode      0.829 
##  2 MOR             has_catalogNumber       1     
##  3 MOR             has_scientificName      1     
##  4 MOR             has_acceptedNameUsage   0     
##  5 MOR             has_locality            0.921 
##  6 MOR             has_countryCode         0.998 
##  7 MOR             has_coordinates         0.175 
##  8 MOR             has_image               0.563 
##  9 MOR             has_dateIdentified      0.0298
## 10 MOR             has_identifiedBy        0.164 
## #  with 4,610 more rows

merged_pivoted_percentage_us_dataset <- bind_rows(idigbio = idigbio_pivoted_percentage_us_dataset, gbif = gbif_pivoted_percentage_us_dataset, .id = "data_provider")

merged_pivoted_percentage_us_dataset$data_provider <- as.factor(merged_pivoted_percentage_us_dataset$data_provider) # prepare data type for violin plots
merged_pivoted_percentage_us_dataset

## # A tibble: 7,336 x 4
##    data_provider institutionCode variable              coverage
##    <fct>         <fct>           <fct>                    <dbl>
##  1 idigbio       MOR             has_collectionCode      0.829 
##  2 idigbio       MOR             has_catalogNumber       1     
##  3 idigbio       MOR             has_scientificName      1     
##  4 idigbio       MOR             has_acceptedNameUsage   0     
##  5 idigbio       MOR             has_locality            0.921 
##  6 idigbio       MOR             has_countryCode         0.998 
##  7 idigbio       MOR             has_coordinates         0.175 
##  8 idigbio       MOR             has_image               0.563 
##  9 idigbio       MOR             has_dateIdentified      0.0298
## 10 idigbio       MOR             has_identifiedBy        0.164 
## #  with 7,326 more rows
…
